Data 607 Project 2
…
DATASET 2: POPULATION vs MARRIAGE

Source: https://rawgit.com/nschettini/CUNY-MSDS-DATA-607/master/national_marriage_divorce_rates_00-16.csv

library(tidyverse)

#Read data from csv
md_ds <- read.csv(file="national_marriage_divorce_rates_00-16.csv", header=FALSE, sep=",")

#View initial data
as.tibble(md_ds)

## # A tibble: 61 x 10
##    V1             V2     V3    V4       V5    V6    V7    V8    V9    V10  
##    <fct>          <fct>  <fct> <fct>    <lgl> <lgl> <lgl> <lgl> <lgl> <lgl>
##  1 Provisiona~ ""     ""    ""       NA    NA    NA    NA    NA    NA   
##  2 ""             ""     ""    ""       NA    NA    NA    NA    NA    NA   
##  3 Year           Marri~ Popu~ Rate pe~ NA    NA    NA    NA    NA    NA   
##  4 2016           2,245~ 323,~ 6.9      NA    NA    NA    NA    NA    NA   
##  5 2015           2,221~ 321,~ 6.9      NA    NA    NA    NA    NA    NA   
##  6 2014/1         2,140~ 308,~ 6.9      NA    NA    NA    NA    NA    NA   
##  7 2013/1         2,081~ 306,~ 6.8      NA    NA    NA    NA    NA    NA   
##  8 2012           2,131~ 313,~ 6.8      NA    NA    NA    NA    NA    NA   
##  9 2011           2,118~ 311,~ 6.8      NA    NA    NA    NA    NA    NA   
## 10 2010           2,096~ 308,~ 6.8      NA    NA    NA    NA    NA    NA   
## # ... with 51 more rows
…
