DATA 624 Project 1
…
print(atmdata)

## # A tibble: 1,460 x 3
##    DATE       ATM    Cash
##    <date>     <chr> <dbl>
##  1 2009-05-01 ATM1     96
##  2 2009-05-01 ATM2    107
##  3 2009-05-02 ATM1     82
##  4 2009-05-02 ATM2     89
##  5 2009-05-03 ATM1     85
##  6 2009-05-03 ATM2     90
##  7 2009-05-04 ATM1     90
##  8 2009-05-04 ATM2     55
##  9 2009-05-05 ATM1     99
## 10 2009-05-05 ATM2     79
## # ... with 1,450 more rows
…
