DATA 621 Final
…
# Column names
# names(dfcovid)

# Drop columns that are not required
drp <- c("People_Total_Tested_Count","Difference", "Province_State Admin2", "iso2", "iso3", "FIPS", "Lat", "Long", "Province_State", "Admin2", "People_Hospitalized_Cumulative_Count", "Prep_Flow_Runtime", "Data_Source", "Combined_Key")

# Drop
dfcovid <- dfcovid[ , !(names(dfcovid) %in% drp)]

# Filter - We are only interested in confirmed cases
dfcovid <- dfcovid %>% filter(Case_Type == "Confirmed")

as_tibble(dfcovid)

## # A tibble: 387,200 x 5
##    Case_Type Cases Date      Country_Region           Population_Count
##    <fct>     <int> <fct>     <fct>                               <int>
##  1 Confirmed     0 2/3/2020  Switzerland                       8654618
##  2 Confirmed    23 4/21/2020 Antigua and Barbuda                 97928
##  3 Confirmed     0 2/6/2020  Belize                             397621
##  4 Confirmed     1 3/18/2020 Central African Republic          4829764
##  5 Confirmed  2710 5/9/2020  Greece                           10423056
##  6 Confirmed     1 3/19/2020 Central African Republic          4829764
##  7 Confirmed    18 4/29/2020 France                             285491
##  8 Confirmed     0 3/4/2020  South Sudan                      11193729
##  9 Confirmed 15970 4/27/2020 Canada                           14711827
## 10 Confirmed     0 3/28/2020 Netherlands                         26221
## # ... with 387,190 more rows
…
dfcovid_region_grp <- group_by(dfcovid, Country_Region)
dfcovid_region_grp

## # A tibble: 387,200 x 5
## # Groups:   Country_Region [186]
##    Case_Type Cases Date      Country_Region           Population_Count
##    <fct>     <int> <fct>     <fct>                               <int>
##  1 Confirmed     0 2/3/2020  Switzerland                       8654618
##  2 Confirmed    23 4/21/2020 Antigua and Barbuda                 97928
##  3 Confirmed     0 2/6/2020  Belize                             397621
##  4 Confirmed     1 3/18/2020 Central African Republic          4829764
##  5 Confirmed  2710 5/9/2020  Greece                           10423056
##  6 Confirmed     1 3/19/2020 Central African Republic          4829764
##  7 Confirmed    18 4/29/2020 France                             285491
##  8 Confirmed     0 3/4/2020  South Sudan                      11193729
##  9 Confirmed 15970 4/27/2020 Canada                           14711827
## 10 Confirmed     0 3/28/2020 Netherlands                         26221
## # ... with 387,190 more rows
…
as_tibble(dfcovid2)

## # A tibble: 186 x 2
##    Country_Region      Country_Region_sum
##    <fct>                            <dbl>
##  1 Afghanistan                 4282117510
##  2 Albania                      316558000
##  3 Algeria                     4823614730
##  4 Andorra                        8499150
##  5 Angola                      3615289480
##  6 Antigua and Barbuda           10772080
##  7 Argentina                   4971535470
##  8 Armenia                      325955740
##  9 Australia                   2800567000
## 10 Austria                      990704000
## # ... with 176 more rows
…
